\relax 
\providecommand\hyper@newdestlabel[2]{}
\bibstyle{plain}
\providecommand\HyperFirstAtBeginDocument{\AtBeginDocument}
\HyperFirstAtBeginDocument{\ifx\hyper@anchor\@undefined
\global\let\oldcontentsline\contentsline
\gdef\contentsline#1#2#3#4{\oldcontentsline{#1}{#2}{#3}}
\global\let\oldnewlabel\newlabel
\gdef\newlabel#1#2{\newlabelxx{#1}#2}
\gdef\newlabelxx#1#2#3#4#5#6{\oldnewlabel{#1}{{#2}{#3}}}
\AtEndDocument{\ifx\hyper@anchor\@undefined
\let\contentsline\oldcontentsline
\let\newlabel\oldnewlabel
\fi}
\fi}
\global\let\hyper@last\relax 
\gdef\HyperFirstAtBeginDocument#1{#1}
\providecommand\HyField@AuxAddToFields[1]{}
\providecommand\HyField@AuxAddToCoFields[2]{}
\citation{wiki:knapsack}
\select@language{english}
\@writefile{toc}{\select@language{english}}
\@writefile{lof}{\select@language{english}}
\@writefile{lot}{\select@language{english}}
\@writefile{toc}{\contentsline {section}{\numberline {1}Introduction}{1}{section.1}}
\newlabel{sec:introduction}{{1}{1}{Introduction}{section.1}{}}
\@writefile{toc}{\contentsline {section}{\numberline {2}Algorithms evaluation}{1}{section.2}}
\newlabel{sec:evaluation}{{2}{1}{Algorithms evaluation}{section.2}{}}
\@writefile{lot}{\contentsline {table}{\numberline {1}{\ignorespaces Default parameters for the knapsack generator}}{1}{table.1}}
\newlabel{tab-gen}{{1}{1}{Default parameters for the knapsack generator}{table.1}{}}
\@writefile{toc}{\contentsline {subsection}{\numberline {2.1}Brute force}{1}{subsection.2.1}}
\@writefile{toc}{\contentsline {subsection}{\numberline {2.2}Simple heuristic}{2}{subsection.2.2}}
\@writefile{lot}{\contentsline {table}{\numberline {2}{\ignorespaces Average and maximal error of the heuristic method in relation to the parameter m}}{2}{table.2}}
\newlabel{tab-heuristic-err}{{2}{2}{Average and maximal error of the heuristic method in relation to the parameter m}{table.2}{}}
\@writefile{toc}{\contentsline {subsection}{\numberline {2.3}Branch \& bound}{2}{subsection.2.3}}
\@writefile{lof}{\contentsline {figure}{\numberline {1}{\ignorespaces The runtime dependency of the branch \& bound method on parameter~m}}{3}{figure.1}}
\newlabel{fig-branch-bound-m}{{1}{3}{The runtime dependency of the branch \& bound method on parameter~m}{figure.1}{}}
\@writefile{lof}{\contentsline {figure}{\numberline {2}{\ignorespaces The runtime dependency of the branch \& bound method on parameter~k (parameter d was set to -1)}}{4}{figure.2}}
\newlabel{fig-branch-bound-k}{{2}{4}{The runtime dependency of the branch \& bound method on parameter~k (parameter d was set to -1)}{figure.2}{}}
\@writefile{toc}{\contentsline {subsection}{\numberline {2.4}Dynamic programming}{4}{subsection.2.4}}
\@writefile{lof}{\contentsline {figure}{\numberline {3}{\ignorespaces The runtime dependency of the dynamic programming method on parameter~C}}{5}{figure.3}}
\newlabel{fig-dyn-prog}{{3}{5}{The runtime dependency of the dynamic programming method on parameter~C}{figure.3}{}}
\@writefile{toc}{\contentsline {subsection}{\numberline {2.5}Fully polynomial-time approximation scheme}{5}{subsection.2.5}}
\bibdata{../bib/references}
\bibcite{wiki:knapsack}{1}
\@writefile{lof}{\contentsline {figure}{\numberline {4}{\ignorespaces The runtime dependency of FPTAS on parameter~C}}{6}{figure.4}}
\newlabel{fig-fptas}{{4}{6}{The runtime dependency of FPTAS on parameter~C}{figure.4}{}}
\@writefile{toc}{\contentsline {section}{\numberline {3}Conclusion}{6}{section.3}}
