\relax 
\providecommand\hyper@newdestlabel[2]{}
\bibstyle{plain}
\providecommand\HyperFirstAtBeginDocument{\AtBeginDocument}
\HyperFirstAtBeginDocument{\ifx\hyper@anchor\@undefined
\global\let\oldcontentsline\contentsline
\gdef\contentsline#1#2#3#4{\oldcontentsline{#1}{#2}{#3}}
\global\let\oldnewlabel\newlabel
\gdef\newlabel#1#2{\newlabelxx{#1}#2}
\gdef\newlabelxx#1#2#3#4#5#6{\oldnewlabel{#1}{{#2}{#3}}}
\AtEndDocument{\ifx\hyper@anchor\@undefined
\let\contentsline\oldcontentsline
\let\newlabel\oldnewlabel
\fi}
\fi}
\global\let\hyper@last\relax 
\gdef\HyperFirstAtBeginDocument#1{#1}
\providecommand\HyField@AuxAddToFields[1]{}
\providecommand\HyField@AuxAddToCoFields[2]{}
\citation{wiki:knapsack}
\select@language{english}
\@writefile{toc}{\select@language{english}}
\@writefile{lof}{\select@language{english}}
\@writefile{lot}{\select@language{english}}
\@writefile{toc}{\contentsline {section}{\numberline {1}Introduction}{1}{section.1}}
\newlabel{sec:introduction}{{1}{1}{Introduction}{section.1}{}}
\@writefile{toc}{\contentsline {section}{\numberline {2}Implementation Description}{1}{section.2}}
\newlabel{sec:implementation}{{2}{1}{Implementation Description}{section.2}{}}
\@writefile{toc}{\contentsline {subsection}{\numberline {2.1}Branch \& bound}{1}{subsection.2.1}}
\@writefile{toc}{\contentsline {subsection}{\numberline {2.2}Dynamic programming}{2}{subsection.2.2}}
\@writefile{toc}{\contentsline {subsection}{\numberline {2.3}Fully polynomial-time approximation scheme}{2}{subsection.2.3}}
\newlabel{eq-fptas}{{4}{2}{Fully polynomial-time approximation scheme}{equation.2.4}{}}
\@writefile{toc}{\contentsline {section}{\numberline {3}Results}{2}{section.3}}
\@writefile{lof}{\contentsline {figure}{\numberline {1}{\ignorespaces The time course of the branch \& bound method}}{3}{figure.1}}
\newlabel{fig-brute-force}{{1}{3}{The time course of the branch \& bound method}{figure.1}{}}
\@writefile{lof}{\contentsline {figure}{\numberline {2}{\ignorespaces The logarithmic time course of the branch \& bound method}}{4}{figure.2}}
\newlabel{fig-brute-force-log}{{2}{4}{The logarithmic time course of the branch \& bound method}{figure.2}{}}
\@writefile{lof}{\contentsline {figure}{\numberline {3}{\ignorespaces The time course of the dynamic programming solution}}{5}{figure.3}}
\newlabel{fig-dyn-prog}{{3}{5}{The time course of the dynamic programming solution}{figure.3}{}}
\@writefile{lof}{\contentsline {figure}{\numberline {4}{\ignorespaces The time course of FPTAS}}{6}{figure.4}}
\newlabel{fig-fptas}{{4}{6}{The time course of FPTAS}{figure.4}{}}
\newlabel{eq-relative-error}{{5}{6}{Results}{equation.3.5}{}}
\bibdata{../bib/references}
\bibcite{wiki:knapsack}{1}
\@writefile{lot}{\contentsline {table}{\numberline {1}{\ignorespaces maximal relative errors of FPTAS}}{7}{table.1}}
\newlabel{tab-fptas}{{1}{7}{maximal relative errors of FPTAS}{table.1}{}}
\@writefile{toc}{\contentsline {section}{\numberline {4}Conclusion}{7}{section.4}}
