\BOOKMARK [1][-]{section.1}{Introduction}{}% 1
\BOOKMARK [1][-]{section.2}{Implementation Description}{}% 2
\BOOKMARK [2][-]{subsection.2.1}{Branch \046 bound}{section.2}% 3
\BOOKMARK [2][-]{subsection.2.2}{Dynamic programming}{section.2}% 4
\BOOKMARK [2][-]{subsection.2.3}{Fully polynomial-time approximation scheme}{section.2}% 5
\BOOKMARK [1][-]{section.3}{Results}{}% 6
\BOOKMARK [1][-]{section.4}{Conclusion}{}% 7
