\relax 
\providecommand\hyper@newdestlabel[2]{}
\bibstyle{plain}
\providecommand\HyperFirstAtBeginDocument{\AtBeginDocument}
\HyperFirstAtBeginDocument{\ifx\hyper@anchor\@undefined
\global\let\oldcontentsline\contentsline
\gdef\contentsline#1#2#3#4{\oldcontentsline{#1}{#2}{#3}}
\global\let\oldnewlabel\newlabel
\gdef\newlabel#1#2{\newlabelxx{#1}#2}
\gdef\newlabelxx#1#2#3#4#5#6{\oldnewlabel{#1}{{#2}{#3}}}
\AtEndDocument{\ifx\hyper@anchor\@undefined
\let\contentsline\oldcontentsline
\let\newlabel\oldnewlabel
\fi}
\fi}
\global\let\hyper@last\relax 
\gdef\HyperFirstAtBeginDocument#1{#1}
\providecommand\HyField@AuxAddToFields[1]{}
\providecommand\HyField@AuxAddToCoFields[2]{}
\citation{wiki:knapsack}
\select@language{english}
\@writefile{toc}{\select@language{english}}
\@writefile{lof}{\select@language{english}}
\@writefile{lot}{\select@language{english}}
\@writefile{toc}{\contentsline {section}{\numberline {1}Introduction}{1}{section.1}}
\newlabel{sec:introduction}{{1}{1}{Introduction}{section.1}{}}
\@writefile{toc}{\contentsline {section}{\numberline {2}Simulated Annealing}{1}{section.2}}
\newlabel{sec:sim-annealing}{{2}{1}{Simulated Annealing}{section.2}{}}
\@writefile{toc}{\contentsline {section}{\numberline {3}Experiments}{1}{section.3}}
\@writefile{lot}{\contentsline {table}{\numberline {1}{\ignorespaces The average relative error and duration dependency on the temperature parameter $T$.}}{2}{table.1}}
\newlabel{tab-temperature}{{1}{2}{The average relative error and duration dependency on the temperature parameter $T$}{table.1}{}}
\@writefile{lot}{\contentsline {table}{\numberline {2}{\ignorespaces The average relative error and duration dependency on the cooling parameter $a$.}}{2}{table.2}}
\newlabel{tab-alpha}{{2}{2}{The average relative error and duration dependency on the cooling parameter $a$}{table.2}{}}
\@writefile{lot}{\contentsline {table}{\numberline {3}{\ignorespaces The average relative error and duration dependency on the parameter $k$.}}{2}{table.3}}
\newlabel{tab-k}{{3}{2}{The average relative error and duration dependency on the parameter $k$}{table.3}{}}
\newlabel{note-are}{{1}{2}{Experiments}{table.1}{}}
\newlabel{note-dps}{{2}{2}{Experiments}{table.1}{}}
\@writefile{lof}{\contentsline {figure}{\numberline {1}{\ignorespaces The course of the optimization, $a = 0.95$, $k = 1$, $T = 100$.}}{3}{figure.1}}
\newlabel{fig-evolution1}{{1}{3}{The course of the optimization, $a = 0.95$, $k = 1$, $T = 100$}{figure.1}{}}
\bibdata{../bib/references}
\bibcite{wiki:knapsack}{1}
\@writefile{lof}{\contentsline {figure}{\numberline {2}{\ignorespaces The course of the optimization, $a = 0.999$, $k = 50$, $T = 100$.}}{4}{figure.2}}
\newlabel{fig-evolution2}{{2}{4}{The course of the optimization, $a = 0.999$, $k = 50$, $T = 100$}{figure.2}{}}
\@writefile{toc}{\contentsline {section}{\numberline {4}Conclusion}{4}{section.4}}
