\relax 
\@writefile{toc}{\contentsline {section}{\numberline {1}Problem definition}{1}}
\@writefile{toc}{\contentsline {section}{\numberline {2}Sequential solution}{1}}
\newlabel{seq-sol-sec}{{2}{1}}
\@writefile{toc}{\contentsline {section}{\numberline {3}OpenMP solution}{1}}
\@writefile{toc}{\contentsline {subsection}{\numberline {3.1}OpenMP task parallelism}{1}}
\@writefile{toc}{\contentsline {subsection}{\numberline {3.2}OpenMP data parallelism}{2}}
\@writefile{toc}{\contentsline {section}{\numberline {4}MPI solution}{2}}
\@writefile{toc}{\contentsline {section}{\numberline {5}Experiments}{2}}
\@writefile{lot}{\contentsline {table}{\numberline {1}{\ignorespaces Experiments results.}}{3}}
\newlabel{exp-tab}{{1}{3}}
\@writefile{toc}{\contentsline {section}{\numberline {6}Conclusion}{3}}
