g:
1399083985587246823922331152914572256602436560300410605774400390056586752611592\
2413798387358018703046045895845133645731411431477989957938946276205874789380682\
2630576600589216363750726721738603019168717502194835029203210468261915902285187\
2820658199660251979419146192605516299706193442466453585884022848231265

g^q (mod p):
1

Do Alice and Bob share the same secret?
true

The shared secret is:
1927903150257395135952994900951378994564927513825115084007691402938407461254441\
1817640611027960489750149658851926731889257474310227584812759508511175359124135\
6848747976042822052738119943596791090001335905007490070510458948956837138111379\
1948934468117656861733888003090761255988829394149997889559820171529192
